%YAML 1.1
%TAG !u! tag:unity3d.com,2011:
--- !u!1 &3988031401756966958
GameObject:
  m_ObjectHideFlags: 0
  m_CorrespondingSourceObject: {fileID: 0}
  m_PrefabInstance: {fileID: 0}
  m_PrefabAsset: {fileID: 0}
  serializedVersion: 6
  m_Component:
  - component: {fileID: 3988031401756966959}
  - component: {fileID: 3988031401756966944}
  - component: {fileID: 3988031401756966945}
  - component: {fileID: 3988031401756966946}
  m_Layer: 0
  m_Name: Input Manager
  m_TagString: Untagged
  m_Icon: {fileID: 0}
  m_NavMeshLayer: 0
  m_StaticEditorFlags: 0
  m_IsActive: 1
--- !u!4 &3988031401756966959
Transform:
  m_ObjectHideFlags: 0
  m_CorrespondingSourceObject: {fileID: 0}
  m_PrefabInstance: {fileID: 0}
  m_PrefabAsset: {fileID: 0}
  m_GameObject: {fileID: 3988031401756966958}
  m_LocalRotation: {x: -0, y: -0, z: -0, w: 1}
  m_LocalPosition: {x: 0, y: 0, z: 0}
  m_LocalScale: {x: 1, y: 1, z: 1}
  m_Children: []
  m_Father: {fileID: 0}
  m_RootOrder: 0
  m_LocalEulerAnglesHint: {x: 0, y: 0, z: 0}
--- !u!114 &3988031401756966944
MonoBehaviour:
  m_ObjectHideFlags: 0
  m_CorrespondingSourceObject: {fileID: 0}
  m_PrefabInstance: {fileID: 0}
  m_PrefabAsset: {fileID: 0}
  m_GameObject: {fileID: 3988031401756966958}
  m_Enabled: 1
  m_EditorHideFlags: 0
  m_Script: {fileID: 11500000, guid: 581b3e3c96df0ef42aef16b63b27b87f, type: 3}
  m_Name: 
  m_EditorClassIdentifier: 
  _dontDestroyOnLoad: 1
  _userData:
    configVars:
      updateLoop: 1
      alwaysUseUnityInput: 0
      windowsStandalonePrimaryInputSource: 0
      osx_primaryInputSource: 0
      linux_primaryInputSource: 0
      windowsUWP_primaryInputSource: 0
      xboxOne_primaryInputSource: 0
      ps4_primaryInputSource: 0
      useXInput: 1
      useNativeMouse: 1
      useEnhancedDeviceSupport: 1
      windowsStandalone_useSteamRawInputControllerWorkaround: 0
      osxStandalone_useEnhancedDeviceSupport: 1
      android_supportUnknownGamepads: 1
      ps4_assignJoysticksByPS4JoyId: 1
      useSteamControllerSupport: 1
      platformVars_allPlatforms:
        disableKeyboard: 0
        ignoreInputWhenAppNotInFocus: 1
      platformVars_windowsStandalone:
        disableKeyboard: 0
        ignoreInputWhenAppNotInFocus: 1
      platformVars_linuxStandalone:
        disableKeyboard: 0
        ignoreInputWhenAppNotInFocus: 1
      platformVars_osxStandalone:
        disableKeyboard: 0
        ignoreInputWhenAppNotInFocus: 1
      platformVars_windows8Store:
        disableKeyboard: 0
        ignoreInputWhenAppNotInFocus: 1
      platformVars_windowsUWP:
        disableKeyboard: 0
        ignoreInputWhenAppNotInFocus: 1
      platformVars_iOS:
        disableKeyboard: 0
        ignoreInputWhenAppNotInFocus: 1
      platformVars_tvOS:
        disableKeyboard: 0
        ignoreInputWhenAppNotInFocus: 1
      platformVars_android:
        disableKeyboard: 0
        ignoreInputWhenAppNotInFocus: 1
      platformVars_ps3:
        disableKeyboard: 0
        ignoreInputWhenAppNotInFocus: 1
      platformVars_ps4:
        disableKeyboard: 0
        ignoreInputWhenAppNotInFocus: 1
      platformVars_psVita:
        disableKeyboard: 0
        ignoreInputWhenAppNotInFocus: 1
      platformVars_xbox360:
        disableKeyboard: 0
        ignoreInputWhenAppNotInFocus: 1
      platformVars_xboxOne:
        disableKeyboard: 0
        ignoreInputWhenAppNotInFocus: 1
      platformVars_wii:
        disableKeyboard: 0
        ignoreInputWhenAppNotInFocus: 1
      platformVars_wiiu:
        disableKeyboard: 0
        ignoreInputWhenAppNotInFocus: 1
      platformVars_webGL:
        disableKeyboard: 0
        ignoreInputWhenAppNotInFocus: 1
      maxJoysticksPerPlayer: 1
      autoAssignJoysticks: 1
      assignJoysticksToPlayingPlayersOnly: 0
      distributeJoysticksEvenly: 1
      reassignJoystickToPreviousOwnerOnReconnect: 1
      defaultJoystickAxis2DDeadZoneType: 1
      force4WayHats: 0
      editorSettings:
        exportConsts_useParentClass: 0
        exportConsts_parentClassName: RewiredConsts
        exportConsts_useNamespace: 1
        exportConsts_namespace: RewiredConsts
        exportConsts_actions: 1
        exportConsts_actionsClassName: Action
        exportConsts_actionsIncludeActionCategory: 0
        exportConsts_mapCategories: 1
        exportConsts_mapCategoriesClassName: Category
        exportConsts_layouts: 1
        exportConsts_layoutsClassName: Layout
        exportConsts_players: 1
        exportConsts_playersClassName: Player
        exportConsts_customControllers: 1
        exportConsts_customControllersClassName: CustomController
        exportConsts_customControllersAxesClassName: Axis
        exportConsts_customControllersButtonsClassName: Button
    players:
    - _id: 9999999
      _name: System
      _descriptiveName: System
      _startPlaying: 1
      _defaultJoystickMaps: []
      _defaultMouseMaps: []
      _defaultKeyboardMaps: []
      _defaultCustomControllerMaps: []
      _startingCustomControllers: []
      _assignMouseOnStart: 1
      _assignKeyboardOnStart: 1
      _excludeFromControllerAutoAssignment: 1
    - _id: 3
      _name: Player1
      _descriptiveName: Player 1
      _startPlaying: 1
      _defaultJoystickMaps:
      - _enabled: 1
        _categoryId: 0
        _layoutId: 0
      _defaultMouseMaps: []
      _defaultKeyboardMaps:
      - _enabled: 1
        _categoryId: 0
        _layoutId: 0
      _defaultCustomControllerMaps: []
      _startingCustomControllers: []
      _assignMouseOnStart: 0
      _assignKeyboardOnStart: 1
      _excludeFromControllerAutoAssignment: 0
    - _id: 4
      _name: Player2
      _descriptiveName: Player 2
      _startPlaying: 1
      _defaultJoystickMaps:
      - _enabled: 1
        _categoryId: 0
        _layoutId: 0
      _defaultMouseMaps: []
      _defaultKeyboardMaps:
      - _enabled: 1
        _categoryId: 0
        _layoutId: 0
      _defaultCustomControllerMaps: []
      _startingCustomControllers: []
      _assignMouseOnStart: 0
      _assignKeyboardOnStart: 1
      _excludeFromControllerAutoAssignment: 0
    actions:
    - _id: 0
      _name: Jump
      _type: 1
      _descriptiveName: Jump
      _positiveDescriptiveName: 
      _negativeDescriptiveName: 
      _behaviorId: 0
      _userAssignable: 1
      _categoryId: 0
    - _id: 1
      _name: Target
      _type: 1
      _descriptiveName: Target
      _positiveDescriptiveName: 
      _negativeDescriptiveName: 
      _behaviorId: 0
      _userAssignable: 1
      _categoryId: 0
    - _id: 2
      _name: Smash
      _type: 1
      _descriptiveName: Smash
      _positiveDescriptiveName: 
      _negativeDescriptiveName: 
      _behaviorId: 0
      _userAssignable: 1
      _categoryId: 0
    - _id: 3
      _name: Special
      _type: 1
      _descriptiveName: Special
      _positiveDescriptiveName: 
      _negativeDescriptiveName: 
      _behaviorId: 0
      _userAssignable: 1
      _categoryId: 0
    - _id: 4
      _name: ToggleCamera
      _type: 1
      _descriptiveName: Action0
      _positiveDescriptiveName: 
      _negativeDescriptiveName: 
      _behaviorId: 0
      _userAssignable: 1
      _categoryId: 0
    - _id: 5
      _name: Movement Horizontal
      _type: 0
      _descriptiveName: Action0
      _positiveDescriptiveName: 
      _negativeDescriptiveName: 
      _behaviorId: 0
      _userAssignable: 1
      _categoryId: 0
    - _id: 6
      _name: Movement Vertical
      _type: 0
      _descriptiveName: Action0
      _positiveDescriptiveName: 
      _negativeDescriptiveName: 
      _behaviorId: 0
      _userAssignable: 1
      _categoryId: 0
    - _id: 7
      _name: GetUp
      _type: 1
      _descriptiveName: Action0
      _positiveDescriptiveName: 
      _negativeDescriptiveName: 
      _behaviorId: 0
      _userAssignable: 1
      _categoryId: 0
    - _id: 8
      _name: Block
      _type: 1
      _descriptiveName: Block
      _positiveDescriptiveName: 
      _negativeDescriptiveName: 
      _behaviorId: 0
      _userAssignable: 1
      _categoryId: 0
    - _id: 9
      _name: ToggleTargetLock
      _type: 1
      _descriptiveName: Action0
      _positiveDescriptiveName: 
      _negativeDescriptiveName: 
      _behaviorId: 0
      _userAssignable: 1
      _categoryId: 0
    - _id: 10
      _name: Dpad Horizontal
      _type: 0
      _descriptiveName: Action0
      _positiveDescriptiveName: 
      _negativeDescriptiveName: 
      _behaviorId: 0
      _userAssignable: 1
      _categoryId: 0
    - _id: 11
      _name: Dpad Vertical
      _type: 0
      _descriptiveName: Action0
      _positiveDescriptiveName: 
      _negativeDescriptiveName: 
      _behaviorId: 0
      _userAssignable: 1
      _categoryId: 0
    - _id: 12
      _name: UpDownAxis
      _type: 0
      _descriptiveName: Action0
      _positiveDescriptiveName: 
      _negativeDescriptiveName: 
      _behaviorId: 0
      _userAssignable: 1
      _categoryId: 0
    - _id: 13
      _name: Jab
      _type: 1
      _descriptiveName: Jab
      _positiveDescriptiveName: 
      _negativeDescriptiveName: 
      _behaviorId: 0
      _userAssignable: 1
      _categoryId: 0
    - _id: 14
      _name: AltAxis Horizontal
      _type: 0
      _descriptiveName: Action0
      _positiveDescriptiveName: 
      _negativeDescriptiveName: 
      _behaviorId: 0
      _userAssignable: 1
      _categoryId: 0
    - _id: 15
      _name: AltAxis Vertical
      _type: 0
      _descriptiveName: Action0
      _positiveDescriptiveName: 
      _negativeDescriptiveName: 
      _behaviorId: 0
      _userAssignable: 1
      _categoryId: 0
    - _id: 16
      _name: AirDodge
      _type: 1
      _descriptiveName: Action0
      _positiveDescriptiveName: 
      _negativeDescriptiveName: 
      _behaviorId: 0
      _userAssignable: 1
      _categoryId: 0
    - _id: 17
      _name: MoveForward
      _type: 1
      _descriptiveName: MoveForward
      _positiveDescriptiveName: 
      _negativeDescriptiveName: 
      _behaviorId: 0
      _userAssignable: 1
      _categoryId: 0
    - _id: 20
      _name: NextCharacter
      _type: 1
      _descriptiveName: NextCharacter
      _positiveDescriptiveName: 
      _negativeDescriptiveName: 
      _behaviorId: 0
      _userAssignable: 1
      _categoryId: 0
    actionCategories:
    - _name: Default
      _descriptiveName: Default
      _tag: 
      _id: 0
      _userAssignable: 1
    actionCategoryMap:
      list:
      - categoryId: 0
        actionIds: 000000000100000002000000030000000400000005000000060000000700000008000000090000000a0000000b0000000c0000000d0000000f0000000e000000100000001100000014000000
    inputBehaviors:
    - _id: 0
      _name: Default
      _joystickAxisSensitivity: 1
      _digitalAxisSimulation: 1
      _digitalAxisSnap: 1
      _digitalAxisInstantReverse: 0
      _digitalAxisGravity: 3
      _digitalAxisSensitivity: 3
      _mouseXYAxisMode: 0
      _mouseOtherAxisMode: 0
      _mouseXYAxisSensitivity: 1
      _mouseXYAxisDeltaCalc: 0
      _mouseOtherAxisSensitivity: 1
      _customControllerAxisSensitivity: 1
      _buttonDoublePressSpeed: 0.3
      _buttonShortPressTime: 0.25
      _buttonShortPressExpiresIn: 0
      _buttonLongPressTime: 1
      _buttonLongPressExpiresIn: 0
      _buttonDeadZone: 0.5
      _buttonDownBuffer: 0
      _buttonRepeatRate: 30
      _buttonRepeatDelay: 0
    mapCategories:
    - _name: Default
      _descriptiveName: Default
      _tag: 
      _id: 0
      _userAssignable: 1
      _checkConflictsWithAllCategories: 1
      _checkConflictsCategoryIds: 
    joystickLayouts:
    - _name: Default
      _descriptiveName: Default
      _id: 0
    keyboardLayouts:
    - _name: Default
      _descriptiveName: Default
      _id: 0
    mouseLayouts:
    - _name: Default
      _descriptiveName: Default
      _id: 0
    customControllerLayouts:
    - _name: Default
      _descriptiveName: Default
      _id: 0
    joystickMaps:
    - id: 0
      categoryId: 0
      layoutId: 0
      name: 
      hardwareGuidString: 83b427e4-086f-47f3-bb06-be266abd1ca5
      customControllerUid: 0
      actionElementMaps:
      - _actionCategoryId: 0
        _actionId: 5
        _elementType: 0
        _elementIdentifierId: 0
        _axisRange: 0
        _invert: 0
        _axisContribution: 0
        _keyboardKeyCode: 0
        _modifierKey1: 0
        _modifierKey2: 0
        _modifierKey3: 0
      - _actionCategoryId: 0
        _actionId: 6
        _elementType: 0
        _elementIdentifierId: 1
        _axisRange: 0
        _invert: 0
        _axisContribution: 0
        _keyboardKeyCode: 0
        _modifierKey1: 0
        _modifierKey2: 0
        _modifierKey3: 0
      - _actionCategoryId: 0
        _actionId: 0
        _elementType: 1
        _elementIdentifierId: 8
        _axisRange: 0
        _invert: 0
        _axisContribution: 0
        _keyboardKeyCode: 0
        _modifierKey1: 0
        _modifierKey2: 0
        _modifierKey3: 0
      - _actionCategoryId: 0
        _actionId: 13
        _elementType: 1
        _elementIdentifierId: 5
        _axisRange: 0
        _invert: 0
        _axisContribution: 0
        _keyboardKeyCode: 0
        _modifierKey1: 0
        _modifierKey2: 0
        _modifierKey3: 0
      - _actionCategoryId: 0
        _actionId: 2
        _elementType: 1
        _elementIdentifierId: 4
        _axisRange: 0
        _invert: 0
        _axisContribution: 0
        _keyboardKeyCode: 0
        _modifierKey1: 0
        _modifierKey2: 0
        _modifierKey3: 0
      - _actionCategoryId: 0
        _actionId: 3
        _elementType: 1
        _elementIdentifierId: 7
        _axisRange: 0
        _invert: 0
        _axisContribution: 0
        _keyboardKeyCode: 0
        _modifierKey1: 0
        _modifierKey2: 0
        _modifierKey3: 0
      - _actionCategoryId: 0
        _actionId: 9
        _elementType: 1
        _elementIdentifierId: 17
        _axisRange: 0
        _invert: 0
        _axisContribution: 0
        _keyboardKeyCode: 0
        _modifierKey1: 0
        _modifierKey2: 0
        _modifierKey3: 0
      - _actionCategoryId: 0
        _actionId: 4
        _elementType: 1
        _elementIdentifierId: 18
        _axisRange: 0
        _invert: 0
        _axisContribution: 0
        _keyboardKeyCode: 0
        _modifierKey1: 0
        _modifierKey2: 0
        _modifierKey3: 0
      - _actionCategoryId: 0
        _actionId: 1
        _elementType: 1
        _elementIdentifierId: 11
        _axisRange: 0
        _invert: 0
        _axisContribution: 0
        _keyboardKeyCode: 0
        _modifierKey1: 0
        _modifierKey2: 0
        _modifierKey3: 0
      - _actionCategoryId: 0
        _actionId: 8
        _elementType: 1
        _elementIdentifierId: 10
        _axisRange: 0
        _invert: 0
        _axisContribution: 0
        _keyboardKeyCode: 0
        _modifierKey1: 0
        _modifierKey2: 0
        _modifierKey3: 0
      - _actionCategoryId: 0
        _actionId: 17
        _elementType: 1
        _elementIdentifierId: 13
        _axisRange: 0
        _invert: 0
        _axisContribution: 0
        _keyboardKeyCode: 0
        _modifierKey1: 0
        _modifierKey2: 0
        _modifierKey3: 0
      - _actionCategoryId: 0
        _actionId: 20
        _elementType: 1
        _elementIdentifierId: 14
        _axisRange: 0
        _invert: 0
        _axisContribution: 0
        _keyboardKeyCode: 0
        _modifierKey1: 0
        _modifierKey2: 0
        _modifierKey3: 0
    keyboardMaps:
    - id: 0
      categoryId: 0
      layoutId: 0
      name: 
      hardwareGuidString: 
      customControllerUid: 0
      actionElementMaps:
      - _actionCategoryId: 0
        _actionId: 0
        _elementType: 1
        _elementIdentifierId: -1
        _axisRange: 0
        _invert: 0
        _axisContribution: 0
        _keyboardKeyCode: 32
        _modifierKey1: 0
        _modifierKey2: 0
        _modifierKey3: 0
      - _actionCategoryId: 0
        _actionId: 5
        _elementType: 1
        _elementIdentifierId: -1
        _axisRange: 0
        _invert: 0
        _axisContribution: 0
        _keyboardKeyCode: 100
        _modifierKey1: 0
        _modifierKey2: 0
        _modifierKey3: 0
      - _actionCategoryId: 0
        _actionId: 5
        _elementType: 1
        _elementIdentifierId: -1
        _axisRange: 0
        _invert: 0
        _axisContribution: 1
        _keyboardKeyCode: 97
        _modifierKey1: 0
        _modifierKey2: 0
        _modifierKey3: 0
      - _actionCategoryId: 0
        _actionId: 6
        _elementType: 1
        _elementIdentifierId: -1
        _axisRange: 0
        _invert: 0
        _axisContribution: 0
        _keyboardKeyCode: 119
        _modifierKey1: 0
        _modifierKey2: 0
        _modifierKey3: 0
      - _actionCategoryId: 0
        _actionId: 6
        _elementType: 1
        _elementIdentifierId: -1
        _axisRange: 0
        _invert: 0
        _axisContribution: 1
        _keyboardKeyCode: 115
        _modifierKey1: 0
        _modifierKey2: 0
        _modifierKey3: 0
      - _actionCategoryId: 0
        _actionId: 1
        _elementType: 1
        _elementIdentifierId: -1
        _axisRange: 0
        _invert: 0
        _axisContribution: 0
        _keyboardKeyCode: 304
        _modifierKey1: 0
        _modifierKey2: 0
        _modifierKey3: 0
      - _actionCategoryId: 0
        _actionId: 13
        _elementType: 1
        _elementIdentifierId: -1
        _axisRange: 0
        _invert: 0
        _axisContribution: 0
        _keyboardKeyCode: 263
        _modifierKey1: 0
        _modifierKey2: 0
        _modifierKey3: 0
      - _actionCategoryId: 0
        _actionId: 2
        _elementType: 1
        _elementIdentifierId: -1
        _axisRange: 0
        _invert: 0
        _axisContribution: 0
        _keyboardKeyCode: 264
        _modifierKey1: 0
        _modifierKey2: 0
        _modifierKey3: 0
      - _actionCategoryId: 0
        _actionId: 3
        _elementType: 1
        _elementIdentifierId: -1
        _axisRange: 0
        _invert: 0
        _axisContribution: 0
        _keyboardKeyCode: 265
        _modifierKey1: 0
        _modifierKey2: 0
        _modifierKey3: 0
      - _actionCategoryId: 0
        _actionId: 8
        _elementType: 1
        _elementIdentifierId: -1
        _axisRange: 0
        _invert: 0
        _axisContribution: 0
        _keyboardKeyCode: 256
        _modifierKey1: 0
        _modifierKey2: 0
        _modifierKey3: 0
    mouseMaps: []
    customControllerMaps: []
    customControllers: []
    playerIdCounter: 5
    actionIdCounter: 21
    actionCategoryIdCounter: 1
    inputBehaviorIdCounter: 1
    mapCategoryIdCounter: 1
    joystickLayoutIdCounter: 1
    keyboardLayoutIdCounter: 1
    mouseLayoutIdCounter: 1
    customControllerLayoutIdCounter: 1
    joystickMapIdCounter: 1
    keyboardMapIdCounter: 1
    mouseMapIdCounter: 0
    customControllerMapIdCounter: 0
    customControllerIdCounter: 0
  _controllerDataFiles: {fileID: 11400000, guid: d21d2b20df8369642b76aafbb2576ba7,
    type: 2}
--- !u!114 &3988031401756966945
MonoBehaviour:
  m_ObjectHideFlags: 0
  m_CorrespondingSourceObject: {fileID: 0}
  m_PrefabInstance: {fileID: 0}
  m_PrefabAsset: {fileID: 0}
  m_GameObject: {fileID: 3988031401756966958}
  m_Enabled: 1
  m_EditorHideFlags: 0
  m_Script: {fileID: 11500000, guid: daccd891521bbf042abffda24b415190, type: 3}
  m_Name: 
  m_EditorClassIdentifier: 
--- !u!114 &3988031401756966946
MonoBehaviour:
  m_ObjectHideFlags: 0
  m_CorrespondingSourceObject: {fileID: 0}
  m_PrefabInstance: {fileID: 0}
  m_PrefabAsset: {fileID: 0}
  m_GameObject: {fileID: 3988031401756966958}
  m_Enabled: 1
  m_EditorHideFlags: 0
  m_Script: {fileID: 11500000, guid: 5dcebd0ccf43dea43a743869f04ecfda, type: 3}
  m_Name: 
  m_EditorClassIdentifier: 
  startingInactivePlayer: {fileID: 0}
  players: []
